{
  "logic": "and",
  "filters": [
    {
      "field": "LastName",
      "operator": "eq",
      "value": "White"
    },
    {
      "field": "Age",
      "operator": "gte",
      "value": 20
    },
    {
      "logic": "or",
      "filters": [
        {
          "field": "FirstName",
          "operator": "eq",
          "value": "Mary"
        },
        {
          "field": "City",
          "operator": "eq",
          "value": "London"
        }
      ]
    }
  ]
}